{
	"info": {
		"_postman_id": "a9d41c13-b8ac-42cb-8135-4308e66ae720",
		"name": "article",
		"schema": "https://schema.getpostman.com/json/collection/v2.1.0/collection.json"
	},
	"item": [
		{
			"name": "Article create",
			"request": {
				"method": "POST",
				"header": [
					{
						"key": "Content-Type",
						"name": "Content-Type",
						"value": "application/json",
						"type": "text"
					},
					{
						"key": "x-auth-token",
						"value": "eyJhbGciOiJIUzI1NiIsInR5cCI6IkpXVCJ9.eyJ1c2VyIjp7ImlkIjoiNWYwZWI0N2UxZDJkNDQ3MWU4MjA1YTQ5In0sImlhdCI6MTU5NDgwODMwMCwiZXhwIjoxNTk0ODExOTAwfQ.npmzFQnak1ZXcBld4zrzBGZ5eKF_7nHKS6tfDwJGIDs",
						"type": "text"
					}
				],
				"body": {
					"mode": "raw",
					"raw": "{\r\n    \"article_title\": \"Titolo originale\",\r\n    \"article_description\": \"Descrizione originale\"\r\n}",
					"options": {
						"raw": {
							"language": "json"
						}
					}
				},
				"url": {
					"raw": "localhost:4000/articles",
					"host": [
						"localhost"
					],
					"port": "4000",
					"path": [
						"articles"
					]
				}
			},
			"response": []
		},
		{
			"name": "Articles get",
			"protocolProfileBehavior": {
				"disableBodyPruning": true
			},
			"request": {
				"method": "GET",
				"header": [
					{
						"key": "Content-Type",
						"name": "Content-Type",
						"value": "application/json",
						"type": "text"
					}
				],
				"body": {
					"mode": "raw",
					"raw": "",
					"options": {
						"raw": {
							"language": "json"
						}
					}
				},
				"url": {
					"raw": "localhost:4000/articles",
					"host": [
						"localhost"
					],
					"port": "4000",
					"path": [
						"articles"
					]
				}
			},
			"response": []
		},
		{
			"name": "Article get",
			"protocolProfileBehavior": {
				"disableBodyPruning": true
			},
			"request": {
				"method": "GET",
				"header": [
					{
						"key": "Content-Type",
						"name": "Content-Type",
						"value": "application/json",
						"type": "text"
					}
				],
				"body": {
					"mode": "raw",
					"raw": "",
					"options": {
						"raw": {
							"language": "json"
						}
					}
				},
				"url": {
					"raw": "localhost:4000/articles/5f0ed83e59f13da35c6c0b4d",
					"host": [
						"localhost"
					],
					"port": "4000",
					"path": [
						"articles",
						"5f0ed83e59f13da35c6c0b4d"
					]
				}
			},
			"response": []
		},
		{
			"name": "Article update",
			"request": {
				"method": "POST",
				"header": [
					{
						"key": "Content-Type",
						"name": "Content-Type",
						"value": "application/json",
						"type": "text"
					},
					{
						"key": "x-auth-token",
						"value": "eyJhbGciOiJIUzI1NiIsInR5cCI6IkpXVCJ9.eyJ1c2VyIjp7ImlkIjoiNWYwZWI0N2UxZDJkNDQ3MWU4MjA1YTQ5In0sImlhdCI6MTU5NDgwOTc4MiwiZXhwIjoxNTk0ODEzMzgyfQ.tz5hmti5U1f9pJYJpnsJQrYsBJL3d0u_1dVdsEByHTw",
						"type": "text"
					}
				],
				"body": {
					"mode": "raw",
					"raw": "{\r\n    \"article_title\": \"Titolo cambiato\",\r\n    \"article_description\": \"Descrizione cambiata\"\r\n}",
					"options": {
						"raw": {
							"language": "json"
						}
					}
				},
				"url": {
					"raw": "localhost:4000/articles/5f0ee2abed11d5a8f8a83088",
					"host": [
						"localhost"
					],
					"port": "4000",
					"path": [
						"articles",
						"5f0ee2abed11d5a8f8a83088"
					]
				}
			},
			"response": []
		},
		{
			"name": "Article delete",
			"request": {
				"method": "DELETE",
				"header": [
					{
						"key": "Content-Type",
						"name": "Content-Type",
						"type": "text",
						"value": "application/json"
					},
					{
						"key": "x-auth-token",
						"type": "text",
						"value": "eyJhbGciOiJIUzI1NiIsInR5cCI6IkpXVCJ9.eyJ1c2VyIjp7ImlkIjoiNWYwZWI0N2UxZDJkNDQ3MWU4MjA1YTQ5In0sImlhdCI6MTU5NDgwOTc4MiwiZXhwIjoxNTk0ODEzMzgyfQ.tz5hmti5U1f9pJYJpnsJQrYsBJL3d0u_1dVdsEByHTw"
					}
				],
				"body": {
					"mode": "raw",
					"raw": "",
					"options": {
						"raw": {
							"language": "json"
						}
					}
				},
				"url": {
					"raw": "localhost:4000/articles/5f0ece52521a33a490f00fed",
					"host": [
						"localhost"
					],
					"port": "4000",
					"path": [
						"articles",
						"5f0ece52521a33a490f00fed"
					]
				}
			},
			"response": []
		},
		{
			"name": "Article put like",
			"request": {
				"method": "PUT",
				"header": [
					{
						"key": "Content-Type",
						"name": "Content-Type",
						"type": "text",
						"value": "application/json"
					},
					{
						"key": "x-auth-token",
						"type": "text",
						"value": "eyJhbGciOiJIUzI1NiIsInR5cCI6IkpXVCJ9.eyJ1c2VyIjp7ImlkIjoiNWYwZWI0N2UxZDJkNDQ3MWU4MjA1YTQ5In0sImlhdCI6MTU5NDgwOTc4MiwiZXhwIjoxNTk0ODEzMzgyfQ.tz5hmti5U1f9pJYJpnsJQrYsBJL3d0u_1dVdsEByHTw"
					}
				],
				"body": {
					"mode": "raw",
					"raw": "",
					"options": {
						"raw": {
							"language": "json"
						}
					}
				},
				"url": {
					"raw": "localhost:4000/articles/like/5f0ed83e59f13da35c6c0b4d",
					"host": [
						"localhost"
					],
					"port": "4000",
					"path": [
						"articles",
						"like",
						"5f0ed83e59f13da35c6c0b4d"
					]
				}
			},
			"response": []
		},
		{
			"name": "Article put tag",
			"request": {
				"method": "PUT",
				"header": [
					{
						"key": "Content-Type",
						"name": "Content-Type",
						"type": "text",
						"value": "application/json"
					},
					{
						"key": "x-auth-token",
						"type": "text",
						"value": "eyJhbGciOiJIUzI1NiIsInR5cCI6IkpXVCJ9.eyJ1c2VyIjp7ImlkIjoiNWYwZWI0N2UxZDJkNDQ3MWU4MjA1YTQ5In0sImlhdCI6MTU5NjA0MDc4MiwiZXhwIjoxNTk2MDQ0MzgyfQ.4KfoG6wWRS5Jfxs5aKG58_q1JDD9Q67lb3FS2TiWkW4"
					}
				],
				"body": {
					"mode": "raw",
					"raw": "",
					"options": {
						"raw": {
							"language": "json"
						}
					}
				},
				"url": {
					"raw": "localhost:4000/articles/tag/5f0ee2abed11d5a8f8a83088/5f16c41acdbb9afa720d0bed",
					"host": [
						"localhost"
					],
					"port": "4000",
					"path": [
						"articles",
						"tag",
						"5f0ee2abed11d5a8f8a83088",
						"5f16c41acdbb9afa720d0bed"
					]
				}
			},
			"response": []
		},
		{
			"name": "Article delete tag",
			"request": {
				"method": "DELETE",
				"header": [
					{
						"key": "Content-Type",
						"name": "Content-Type",
						"type": "text",
						"value": "application/json"
					},
					{
						"key": "x-auth-token",
						"type": "text",
						"value": "eyJhbGciOiJIUzI1NiIsInR5cCI6IkpXVCJ9.eyJ1c2VyIjp7ImlkIjoiNWYwZWI0N2UxZDJkNDQ3MWU4MjA1YTQ5In0sImlhdCI6MTU5NjA0ODY4MSwiZXhwIjoxNTk2MDUyMjgxfQ.xUHXs0ewtXBUnwzP9RULXOxDja_Oz8RBjNUhiFGihWE"
					}
				],
				"body": {
					"mode": "raw",
					"raw": "",
					"options": {
						"raw": {
							"language": "json"
						}
					}
				},
				"url": {
					"raw": "localhost:4000/articles/tag/5f0ee2abed11d5a8f8a83088/5f16c41acdbb9afa720d0bed",
					"host": [
						"localhost"
					],
					"port": "4000",
					"path": [
						"articles",
						"tag",
						"5f0ee2abed11d5a8f8a83088",
						"5f16c41acdbb9afa720d0bed"
					]
				}
			},
			"response": []
		},
		{
			"name": "Article unlike",
			"request": {
				"method": "PUT",
				"header": [
					{
						"key": "Content-Type",
						"name": "Content-Type",
						"value": "application/json",
						"type": "text"
					},
					{
						"key": "x-auth-token",
						"value": "eyJhbGciOiJIUzI1NiIsInR5cCI6IkpXVCJ9.eyJ1c2VyIjp7ImlkIjoiNWYwZWI0N2UxZDJkNDQ3MWU4MjA1YTQ5In0sImlhdCI6MTU5NDgwOTc4MiwiZXhwIjoxNTk0ODEzMzgyfQ.tz5hmti5U1f9pJYJpnsJQrYsBJL3d0u_1dVdsEByHTw",
						"type": "text"
					}
				],
				"body": {
					"mode": "raw",
					"raw": "",
					"options": {
						"raw": {
							"language": "json"
						}
					}
				},
				"url": {
					"raw": "localhost:4000/articles/unlike/5f0ed83e59f13da35c6c0b4d",
					"host": [
						"localhost"
					],
					"port": "4000",
					"path": [
						"articles",
						"unlike",
						"5f0ed83e59f13da35c6c0b4d"
					]
				}
			},
			"response": []
		},
		{
			"name": "Article put comment",
			"request": {
				"method": "POST",
				"header": [
					{
						"key": "Content-Type",
						"name": "Content-Type",
						"type": "text",
						"value": "application/json"
					},
					{
						"key": "x-auth-token",
						"type": "text",
						"value": "eyJhbGciOiJIUzI1NiIsInR5cCI6IkpXVCJ9.eyJ1c2VyIjp7ImlkIjoiNWYwZWI0N2UxZDJkNDQ3MWU4MjA1YTQ5In0sImlhdCI6MTU5NDgwOTc4MiwiZXhwIjoxNTk0ODEzMzgyfQ.tz5hmti5U1f9pJYJpnsJQrYsBJL3d0u_1dVdsEByHTw"
					}
				],
				"body": {
					"mode": "raw",
					"raw": "{\r\n    \"article_comment\": \"Commento\"\r\n}",
					"options": {
						"raw": {
							"language": "json"
						}
					}
				},
				"url": {
					"raw": "localhost:4000/articles/comments/5f0ee2abed11d5a8f8a83088",
					"host": [
						"localhost"
					],
					"port": "4000",
					"path": [
						"articles",
						"comments",
						"5f0ee2abed11d5a8f8a83088"
					]
				}
			},
			"response": []
		},
		{
			"name": "Article delete comment",
			"request": {
				"method": "DELETE",
				"header": [
					{
						"key": "Content-Type",
						"name": "Content-Type",
						"type": "text",
						"value": "application/json"
					},
					{
						"key": "x-auth-token",
						"type": "text",
						"value": "eyJhbGciOiJIUzI1NiIsInR5cCI6IkpXVCJ9.eyJ1c2VyIjp7ImlkIjoiNWYwZWI0N2UxZDJkNDQ3MWU4MjA1YTQ5In0sImlhdCI6MTU5NDgwOTc4MiwiZXhwIjoxNTk0ODEzMzgyfQ.tz5hmti5U1f9pJYJpnsJQrYsBJL3d0u_1dVdsEByHTw"
					}
				],
				"body": {
					"mode": "raw",
					"raw": "{\r\n    \"text\": \"Commento\"\r\n}",
					"options": {
						"raw": {
							"language": "json"
						}
					}
				},
				"url": {
					"raw": "localhost:4000/articles/comments/5f0ee2abed11d5a8f8a83088/5f0ee67408e14c1690ab30a3",
					"host": [
						"localhost"
					],
					"port": "4000",
					"path": [
						"articles",
						"comments",
						"5f0ee2abed11d5a8f8a83088",
						"5f0ee67408e14c1690ab30a3"
					]
				}
			},
			"response": []
		}
	],
	"protocolProfileBehavior": {}
}