{
	"info": {
		"_postman_id": "86d904e0-d02c-44ea-942e-5cafbad587e7",
		"name": "client",
		"schema": "https://schema.getpostman.com/json/collection/v2.1.0/collection.json"
	},
	"item": [
		{
			"name": "Client get myself",
			"protocolProfileBehavior": {
				"disableBodyPruning": true
			},
			"request": {
				"method": "GET",
				"header": [
					{
						"key": "Content-Type",
						"name": "Content-Type",
						"type": "text",
						"value": "application/json"
					},
					{
						"key": "x-auth-token",
						"type": "text",
						"value": "eyJhbGciOiJIUzI1NiIsInR5cCI6IkpXVCJ9.eyJ1c2VyIjp7ImlkIjoiNWYwZWI0N2UxZDJkNDQ3MWU4MjA1YTQ5In0sImlhdCI6MTU5NDc5OTIzMCwiZXhwIjoxNTk0ODAyODMwfQ.SQVac7PM1gMw6wlWJZIbpkpeqZIdx15OCYQggU9ywHI"
					}
				],
				"body": {
					"mode": "raw",
					"raw": "",
					"options": {
						"raw": {
							"language": "json"
						}
					}
				},
				"url": {
					"raw": "localhost:4000/clients/me",
					"host": [
						"localhost"
					],
					"port": "4000",
					"path": [
						"clients",
						"me"
					]
				}
			},
			"response": []
		},
		{
			"name": "Client insert",
			"request": {
				"method": "POST",
				"header": [
					{
						"key": "Content-Type",
						"name": "Content-Type",
						"value": "application/json",
						"type": "text"
					},
					{
						"key": "x-auth-token",
						"value": "eyJhbGciOiJIUzI1NiIsInR5cCI6IkpXVCJ9.eyJ1c2VyIjp7ImlkIjoiNWYwZWI0N2UxZDJkNDQ3MWU4MjA1YTQ5In0sImlhdCI6MTU5NDgxMzIxNywiZXhwIjoxNTk0ODE2ODE3fQ.DIQo0ggwMDTPDS3ZX2ZJ663xKNoTAqbqFQ5CAWVxjBA",
						"type": "text"
					}
				],
				"body": {
					"mode": "raw",
					"raw": "{\r\n    \"client_height\": 173,\r\n    \"client_objectiveWeight\": 69\r\n}",
					"options": {
						"raw": {
							"language": "json"
						}
					}
				},
				"url": {
					"raw": "localhost:4000/clients",
					"host": [
						"localhost"
					],
					"port": "4000",
					"path": [
						"clients"
					]
				}
			},
			"response": []
		},
		{
			"name": "Clients get",
			"protocolProfileBehavior": {
				"disableBodyPruning": true
			},
			"request": {
				"method": "GET",
				"header": [
					{
						"key": "Content-Type",
						"name": "Content-Type",
						"type": "text",
						"value": "application/json"
					}
				],
				"body": {
					"mode": "raw",
					"raw": "",
					"options": {
						"raw": {
							"language": "json"
						}
					}
				},
				"url": {
					"raw": "localhost:4000/clients/",
					"host": [
						"localhost"
					],
					"port": "4000",
					"path": [
						"clients",
						""
					]
				}
			},
			"response": []
		},
		{
			"name": "Client get",
			"protocolProfileBehavior": {
				"disableBodyPruning": true
			},
			"request": {
				"method": "GET",
				"header": [
					{
						"key": "Content-Type",
						"name": "Content-Type",
						"type": "text",
						"value": "application/json"
					}
				],
				"body": {
					"mode": "raw",
					"raw": "",
					"options": {
						"raw": {
							"language": "json"
						}
					}
				},
				"url": {
					"raw": "localhost:4000/clients/5f0de94725cbaf7db40db4ac",
					"host": [
						"localhost"
					],
					"port": "4000",
					"path": [
						"clients",
						"5f0de94725cbaf7db40db4ac"
					]
				}
			},
			"response": []
		},
		{
			"name": "Client update",
			"request": {
				"method": "POST",
				"header": [
					{
						"key": "Content-Type",
						"name": "Content-Type",
						"type": "text",
						"value": "application/json"
					},
					{
						"key": "x-auth-token",
						"type": "text",
						"value": "eyJhbGciOiJIUzI1NiIsInR5cCI6IkpXVCJ9.eyJ1c2VyIjp7ImlkIjoiNWYwZWI0N2UxZDJkNDQ3MWU4MjA1YTQ5In0sImlhdCI6MTU5NDgxMzIxNywiZXhwIjoxNTk0ODE2ODE3fQ.DIQo0ggwMDTPDS3ZX2ZJ663xKNoTAqbqFQ5CAWVxjBA"
					}
				],
				"body": {
					"mode": "raw",
					"raw": "{\r\n    \"client_objectiveWeight\": 68\r\n}",
					"options": {
						"raw": {
							"language": "json"
						}
					}
				},
				"url": {
					"raw": "localhost:4000/clients/5f0eee668a7592a3cc593659",
					"host": [
						"localhost"
					],
					"port": "4000",
					"path": [
						"clients",
						"5f0eee668a7592a3cc593659"
					]
				}
			},
			"response": []
		},
		{
			"name": "Client delete",
			"request": {
				"method": "DELETE",
				"header": [
					{
						"key": "Content-Type",
						"name": "Content-Type",
						"type": "text",
						"value": "application/json"
					},
					{
						"key": "x-auth-token",
						"value": "eyJhbGciOiJIUzI1NiIsInR5cCI6IkpXVCJ9.eyJ1c2VyIjp7ImlkIjoiNWYwZGU5NDcyNWNiYWY3ZGI0MGRiNGFjIn0sImlhdCI6MTU5NDc5NzE0OCwiZXhwIjoxNTk0ODAwNzQ4fQ.id4FvZIarUlvZ2bBF7iXWAoqPY7yIbQpVrRv-OGGxDE",
						"type": "text"
					}
				],
				"body": {
					"mode": "raw",
					"raw": "",
					"options": {
						"raw": {
							"language": "json"
						}
					}
				},
				"url": {
					"raw": "localhost:4000/clients/",
					"host": [
						"localhost"
					],
					"port": "4000",
					"path": [
						"clients",
						""
					]
				}
			},
			"response": []
		},
		{
			"name": "Client put Interest",
			"request": {
				"method": "PUT",
				"header": [
					{
						"key": "Content-Type",
						"name": "Content-Type",
						"type": "text",
						"value": "application/json"
					},
					{
						"key": "x-auth-token",
						"value": "eyJhbGciOiJIUzI1NiIsInR5cCI6IkpXVCJ9.eyJ1c2VyIjp7ImlkIjoiNWYwZGU5NDcyNWNiYWY3ZGI0MGRiNGFjIn0sImlhdCI6MTU5NDc5NzE0OCwiZXhwIjoxNTk0ODAwNzQ4fQ.id4FvZIarUlvZ2bBF7iXWAoqPY7yIbQpVrRv-OGGxDE",
						"type": "text"
					}
				],
				"body": {
					"mode": "raw",
					"raw": "{\r\n    \"tag\": \"5f0eb6edf8c1e1aee92e0f8f\"\r\n}",
					"options": {
						"raw": {
							"language": "json"
						}
					}
				},
				"url": {
					"raw": "localhost:4000/clients/interest",
					"host": [
						"localhost"
					],
					"port": "4000",
					"path": [
						"clients",
						"interest"
					]
				}
			},
			"response": []
		},
		{
			"name": "Client delete Interest",
			"request": {
				"method": "DELETE",
				"header": [
					{
						"key": "Content-Type",
						"name": "Content-Type",
						"type": "text",
						"value": "application/json"
					},
					{
						"key": "x-auth-token",
						"type": "text",
						"value": "eyJhbGciOiJIUzI1NiIsInR5cCI6IkpXVCJ9.eyJ1c2VyIjp7ImlkIjoiNWYwZGU5NDcyNWNiYWY3ZGI0MGRiNGFjIn0sImlhdCI6MTU5NDc5NzE0OCwiZXhwIjoxNTk0ODAwNzQ4fQ.id4FvZIarUlvZ2bBF7iXWAoqPY7yIbQpVrRv-OGGxDE"
					}
				],
				"body": {
					"mode": "raw",
					"raw": "",
					"options": {
						"raw": {
							"language": "json"
						}
					}
				},
				"url": {
					"raw": "localhost:4000/clients/interest/5f0eb6edf8c1e1aee92e0f8f",
					"host": [
						"localhost"
					],
					"port": "4000",
					"path": [
						"clients",
						"interest",
						"5f0eb6edf8c1e1aee92e0f8f"
					]
				}
			},
			"response": []
		},
		{
			"name": "Client put Objective",
			"request": {
				"method": "PUT",
				"header": [
					{
						"key": "Content-Type",
						"name": "Content-Type",
						"type": "text",
						"value": "application/json"
					},
					{
						"key": "x-auth-token",
						"type": "text",
						"value": "eyJhbGciOiJIUzI1NiIsInR5cCI6IkpXVCJ9.eyJ1c2VyIjp7ImlkIjoiNWYwZGU5NDcyNWNiYWY3ZGI0MGRiNGFjIn0sImlhdCI6MTU5NDc5NzE0OCwiZXhwIjoxNTk0ODAwNzQ4fQ.id4FvZIarUlvZ2bBF7iXWAoqPY7yIbQpVrRv-OGGxDE"
					}
				],
				"body": {
					"mode": "raw",
					"raw": "{\r\n    \"objective\": \"5f0eb85af8c1e1aee92e0f90\"\r\n}",
					"options": {
						"raw": {
							"language": "json"
						}
					}
				},
				"url": {
					"raw": "localhost:4000/clients/objective",
					"host": [
						"localhost"
					],
					"port": "4000",
					"path": [
						"clients",
						"objective"
					]
				}
			},
			"response": []
		},
		{
			"name": "Client delete Objective",
			"request": {
				"method": "DELETE",
				"header": [
					{
						"key": "Content-Type",
						"name": "Content-Type",
						"type": "text",
						"value": "application/json"
					},
					{
						"key": "x-auth-token",
						"type": "text",
						"value": "eyJhbGciOiJIUzI1NiIsInR5cCI6IkpXVCJ9.eyJ1c2VyIjp7ImlkIjoiNWYwZGU5NDcyNWNiYWY3ZGI0MGRiNGFjIn0sImlhdCI6MTU5NDc5NzE0OCwiZXhwIjoxNTk0ODAwNzQ4fQ.id4FvZIarUlvZ2bBF7iXWAoqPY7yIbQpVrRv-OGGxDE"
					}
				],
				"body": {
					"mode": "raw",
					"raw": "",
					"options": {
						"raw": {
							"language": "json"
						}
					}
				},
				"url": {
					"raw": "localhost:4000/clients/objective/5f0eb85af8c1e1aee92e0f90",
					"host": [
						"localhost"
					],
					"port": "4000",
					"path": [
						"clients",
						"objective",
						"5f0eb85af8c1e1aee92e0f90"
					]
				}
			},
			"response": []
		},
		{
			"name": "Client put weightProgress",
			"request": {
				"method": "PUT",
				"header": [
					{
						"key": "Content-Type",
						"name": "Content-Type",
						"type": "text",
						"value": "application/json"
					},
					{
						"key": "x-auth-token",
						"type": "text",
						"value": "eyJhbGciOiJIUzI1NiIsInR5cCI6IkpXVCJ9.eyJ1c2VyIjp7ImlkIjoiNWYwZWI0N2UxZDJkNDQ3MWU4MjA1YTQ5In0sImlhdCI6MTU5NDgxMzIxNywiZXhwIjoxNTk0ODE2ODE3fQ.DIQo0ggwMDTPDS3ZX2ZJ663xKNoTAqbqFQ5CAWVxjBA"
					}
				],
				"body": {
					"mode": "raw",
					"raw": "{\r\n    \"weight\": 70,\r\n    \"date\": \"2020-07-15\"\r\n}",
					"options": {
						"raw": {
							"language": "json"
						}
					}
				},
				"url": {
					"raw": "localhost:4000/clients/weightProgress",
					"host": [
						"localhost"
					],
					"port": "4000",
					"path": [
						"clients",
						"weightProgress"
					]
				}
			},
			"response": []
		},
		{
			"name": "Client delete weightProgress",
			"request": {
				"method": "DELETE",
				"header": [
					{
						"key": "Content-Type",
						"name": "Content-Type",
						"type": "text",
						"value": "application/json"
					},
					{
						"key": "x-auth-token",
						"type": "text",
						"value": "eyJhbGciOiJIUzI1NiIsInR5cCI6IkpXVCJ9.eyJ1c2VyIjp7ImlkIjoiNWYwZWI0N2UxZDJkNDQ3MWU4MjA1YTQ5In0sImlhdCI6MTU5NDgxMzIxNywiZXhwIjoxNTk0ODE2ODE3fQ.DIQo0ggwMDTPDS3ZX2ZJ663xKNoTAqbqFQ5CAWVxjBA"
					}
				],
				"body": {
					"mode": "raw",
					"raw": "",
					"options": {
						"raw": {
							"language": "json"
						}
					}
				},
				"url": {
					"raw": "localhost:4000/clients/weightProgress/5f0eeb32f1cb91a904617f8a",
					"host": [
						"localhost"
					],
					"port": "4000",
					"path": [
						"clients",
						"weightProgress",
						"5f0eeb32f1cb91a904617f8a"
					]
				}
			},
			"response": []
		}
	],
	"protocolProfileBehavior": {}
}